Get CCSR Change Log — ccsr_changelog • HCUPtools
…
#> # A tibble: 6 × 6
#>   List of ICD-10-CM diagnosis codes for which th…¹ ``    ``    ``    ``    ``   
#>   <chr>                                            <chr> <chr> <chr> <chr> <chr>
#> 1 List is sorted by ICD-10-CM diagnosis code, but… NA    NA    NA    NA    NA   
#> 2 ICD-10-CM Code                                   ICD-… Outp… Outp… Outp… Outp…
#> 3 A393                                             Chro… INF0… Bact… INF0… Sept…
#> 4 B007                                             Diss… INF0… Vira… INF0… Sept…
#> 5 I76                                              Sept… CIR0… Aort… INF0… Sept…
#> 6 End of Content                                   NA    NA    NA    NA    NA   
#> # ℹ abbreviated name:
#> #   ¹​`List of ICD-10-CM diagnosis codes for which the default CCSR category for the outpatient first-listed diagnosis changed (v2026.1 vs v2025.1)`
#> 
#> === Sheet: Added_diagnosis_codes ===
#> 
#> # A tibble: 489 × 18
#>    List of ICD-10-CM dia…¹ ``    ``    ``    ``    ``    ``    ``    ``    ``   
#>    <chr>                   <chr> <chr> <chr> <chr> <chr> <chr> <chr> <chr> <chr>
#>  1 Added ICD-10-CM Diagno… ICD-… Inpa… Inpa… Outp… Outp… CCSR… CCSR… CCSR… CCSR…
#>  2 B8801                   Infe… SKN0… Othe… SKN0… Othe… SKN0… Othe… INF0… Para…
#>  3 B8809                   Othe… SKN0… Othe… SKN0… Othe… SKN0… Othe… INF0… Para…
#>  4 C50A0                   Mali… NEO0… Brea… NEO0… Brea… NEO0… Brea… NA    NA   
#>  5 C50A1                   Mali… NEO0… Brea… NEO0… Brea… NEO0… Brea… NA    NA   
#>  6 C50A2                   Mali… NEO0… Brea… NEO0… Brea… NEO0… Brea… NA    NA   
#>  7 D711                    Leuk… BLD0… Dise… BLD0… Dise… BLD0… Dise… NA    NA   
#>  8 D718                    Othe… BLD0… Dise… BLD0… Dise… BLD0… Dise… NA    NA   
#>  9 D719                    Func… BLD0… Dise… BLD0… Dise… BLD0… Dise… NA    NA   
#> 10 E11A                    Type… END0… Diab… END0… Diab… END0… Diab… END0… Diab…
#> # ℹ 479 more rows
#> # ℹ abbreviated name:
#> #   ¹​`List of ICD-10-CM diagnosis codes that were added to the CCSR tool (v2026.1 vs v2025.1)`
#> # ℹ 8 more variables: `` <chr>, `` <chr>, `` <chr>, `` <chr>, `` <chr>,
#> #   `` <chr>, `` <chr>, `` <chr>
…
