…
The function automatically discovers available tables by scraping the
HCUP website, so it will automatically adapt to new tables or version
changes.

For more information, see:
https://hcup-us.ahrq.gov/reports/trendtables/summarytrendtables.jsp

## Examples

``` r
# \donttest{
# List available tables
available_tables <- download_trend_tables()
print(available_tables)
#> # A tibble: 49 × 3
#>    table_id table_name                                                 file_name
#>    <chr>    <chr>                                                      <chr>    
#>  1 1        Overview of Trends in Inpatient and Emergency Department … HCUP_Sum…
#>  2 2a       All Inpatient Encounter Types: Trends in the Number of Di… HCUP_Sum…
#>  3 2b       All Inpatient Encounter Types: Trends in the Percent of D… HCUP_Sum…
#>  4 2c       All Inpatient Encounter Types: Trends in the Average Leng… HCUP_Sum…
#>  5 2d       All Inpatient Encounter Types: Trends in the In-Hospital … HCUP_Sum…
#>  6 2e       All Inpatient Encounter Types: Trends in the Population R… HCUP_Sum…
#>  7 6a       Inpatient Encounter Type of Normal Newborns: Trends in th… HCUP_Sum…
#>  8 6b       Inpatient Encounter Type of Normal Newborns: Trends in th… HCUP_Sum…
#>  9 6c       Inpatient Encounter Type of Normal Newborns: Trends in th… HCUP_Sum…
#> 10 7a       Inpatient Encounter Type of Deliveries: Trends in the Num… HCUP_Sum…
#> # ℹ 39 more rows
…
